{
  "urn" : "local:alessio.bulckaen:im.countrysupport.senegal:im-nca-senegal_senegal_west",
  "version" : "0.0.1",
  "adapterType" : "wfs",
  "localPath" : "im.countrysupport.senegal/resources/im-nca-senegal_senegal_west",
  "geometry" : "#s2(1){bbox=[-17.54318619 -14.58139133 13.59005642 15.45986652],proj=EPSG:4326}",
  "projectName" : "im.countrysupport.senegal",
  "localName" : "im-nca-senegal_senegal_west",
  "type" : "OBJECT",
  "resourceTimestamp" : 1642506180024,
  "metadata" : {
    "im:keywords" : "features,senegal_west",
    "dc:title" : "senegal_west"
  },
  "parameters" : {
    "serviceUrl" : "http://192.168.250.122:8600/geoserver/im-nca-senegal/ows",
    "wfsVersion" : "1.0.0",
    "wfsIdentifier" : "im-nca-senegal:senegal_west"
  },
  "localPaths" : [ ],
  "history" : [ ],
  "notifications" : [ ],
  "attributes" : [ {
    "name" : "gid_0",
    "type" : "TEXT",
    "key" : false,
    "optional" : true,
    "exampleValue" : null,
    "index" : 0
  }, {
    "name" : "name_0",
    "type" : "TEXT",
    "key" : false,
    "optional" : true,
    "exampleValue" : null,
    "index" : 0
  }, {
    "name" : "gid_1",
    "type" : "TEXT",
    "key" : false,
    "optional" : true,
    "exampleValue" : null,
    "index" : 0
  }, {
    "name" : "name_1",
    "type" : "TEXT",
    "key" : false,
    "optional" : true,
    "exampleValue" : null,
    "index" : 0
  }, {
    "name" : "varname_1",
    "type" : "TEXT",
    "key" : false,
    "optional" : true,
    "exampleValue" : null,
    "index" : 0
  }, {
    "name" : "nl_name_1",
    "type" : "TEXT",
    "key" : false,
    "optional" : true,
    "exampleValue" : null,
    "index" : 0
  }, {
    "name" : "type_1",
    "type" : "TEXT",
    "key" : false,
    "optional" : true,
    "exampleValue" : null,
    "index" : 0
  }, {
    "name" : "engtype_1",
    "type" : "TEXT",
    "key" : false,
    "optional" : true,
    "exampleValue" : null,
    "index" : 0
  }, {
    "name" : "cc_1",
    "type" : "TEXT",
    "key" : false,
    "optional" : true,
    "exampleValue" : null,
    "index" : 0
  }, {
    "name" : "hasc_1",
    "type" : "TEXT",
    "key" : false,
    "optional" : true,
    "exampleValue" : null,
    "index" : 0
  } ],
  "spatialExtent" : {
    "east" : -14.58139133,
    "west" : -17.54318619,
    "north" : 15.45986652,
    "south" : 13.59005642,
    "gridResolution" : null,
    "gridUnit" : null
  },
  "dependencies" : null,
  "outputs" : null,
  "categorizables" : [ ],
  "codelists" : [ ],
  "availability" : null,
  "exportFormats" : { }
}