{
  "urn" : "local:alessio.bulckaen:im.countrysupport.senegal:im-nca-senegal.elevation_32628_100mt",
  "version" : "0.0.1",
  "adapterType" : "wcs",
  "localPath" : "im.countrysupport.senegal/resources/im-nca-senegal.elevation_32628_100mt",
  "geometry" : "S2(7217,5248){bbox=[227583.0 896844.0001 1362037.7995 1845535.0001],proj=EPSG:32628}",
  "projectName" : "im.countrysupport.senegal",
  "localName" : "im-nca-senegal.elevation_32628_100mt",
  "type" : "NUMBER",
  "resourceTimestamp" : 1670890085304,
  "metadata" : { },
  "parameters" : {
    "wcsIdentifier" : "im-nca-senegal__elevation_32628_100mt",
    "transform" : "",
    "serviceUrl" : "http://192.168.250.122:8600/geoserver/im-nca-senegal/wcs",
    "nodata" : "-32768.0",
    "wcsVersion" : "2.0.1"
  },
  "localPaths" : [ ],
  "history" : [ ],
  "notifications" : [ ],
  "attributes" : [ ],
  "spatialExtent" : {
    "east" : -11.280640877409377,
    "west" : -17.554218514257023,
    "north" : 16.691952440293782,
    "south" : 12.296542666209849,
    "gridResolution" : null,
    "gridUnit" : null
  },
  "dependencies" : null,
  "outputs" : null,
  "categorizables" : [ ],
  "codelists" : [ ],
  "availability" : null,
  "exportFormats" : { }
}