{
  "urn" : "local:alessio.bulckaen:im.countrysupport.senegal:im-nca-senegal.occsol_sn_2010_modif_final_50",
  "version" : "0.0.1",
  "adapterType" : "wcs",
  "localPath" : "im.countrysupport.senegal/resources/im-nca-senegal.occsol_sn_2010_modif_final_50",
  "geometry" : "τ1{tend=1293840000000,tstart=1262304000000,ttype=logical}S2(13385,9671){bbox=[227558.0 896858.0 1361997.0000999998 1845597.0000999998],proj=EPSG:32628}",
  "projectName" : "im.countrysupport.senegal",
  "localName" : "im-nca-senegal.occsol_sn_2010_modif_final_50",
  "type" : "NUMBER",
  "resourceTimestamp" : 1662024719376,
  "metadata" : {
    "im:keywords" : "",
    "dc:comment" : "",
    "im:notes" : "",
    "dc:title" : "",
    "dc:url" : "",
    "dc:creator" : "",
    "im:thematic-area" : "",
    "dc:originator" : "",
    "im:geographic-area" : "",
    "dc:source" : ""
  },
  "parameters" : {
    "wcsIdentifier" : "im-nca-senegal__occsol_sn_2010_modif_final_50",
    "transform" : "",
    "serviceUrl" : "http://192.168.250.122:8600/geoserver/im-nca-senegal/wcs",
    "nodata" : "0.0",
    "wcsVersion" : "2.0.1"
  },
  "localPaths" : [ ],
  "history" : [ ],
  "notifications" : [ ],
  "attributes" : [ ],
  "spatialExtent" : {
    "east" : -11.280499052756065,
    "west" : -17.554460185978094,
    "north" : 16.692512639078885,
    "south" : 12.29617274600517,
    "gridResolution" : null,
    "gridUnit" : null
  },
  "dependencies" : null,
  "outputs" : null,
  "categorizables" : [ ],
  "codelists" : [ ],
  "availability" : null,
  "exportFormats" : { }
}