{
  "urn" : "local:alessio.bulckaen:im.countrysupport.senegal:im-nca-senegal_gadm36_sen_0",
  "version" : "0.0.1",
  "adapterType" : "wfs",
  "localPath" : "im.countrysupport.senegal/resources/im-nca-senegal_gadm36_sen_0",
  "geometry" : "#s2(1){bbox=[-17.54318619 -11.34247017 12.30785942 16.69207191],proj=EPSG:4326}",
  "projectName" : "im.countrysupport.senegal",
  "localName" : "im-nca-senegal_gadm36_sen_0",
  "type" : "OBJECT",
  "resourceTimestamp" : 1642506180328,
  "metadata" : {
    "im:keywords" : "features,gadm36_sen_0",
    "dc:title" : "gadm36_sen_0"
  },
  "parameters" : {
    "serviceUrl" : "http://192.168.250.122:8600/geoserver/im-nca-senegal/ows",
    "wfsVersion" : "1.0.0",
    "wfsIdentifier" : "im-nca-senegal:gadm36_sen_0"
  },
  "localPaths" : [ ],
  "history" : [ ],
  "notifications" : [ ],
  "attributes" : [ {
    "name" : "gid_0",
    "type" : "TEXT",
    "key" : false,
    "optional" : true,
    "exampleValue" : null,
    "index" : 0
  }, {
    "name" : "name_0",
    "type" : "TEXT",
    "key" : false,
    "optional" : true,
    "exampleValue" : null,
    "index" : 0
  } ],
  "spatialExtent" : {
    "east" : -11.34247017,
    "west" : -17.54318619,
    "north" : 16.69207191,
    "south" : 12.30785942,
    "gridResolution" : null,
    "gridUnit" : null
  },
  "dependencies" : null,
  "outputs" : null,
  "categorizables" : [ ],
  "codelists" : [ ],
  "availability" : null,
  "exportFormats" : { }
}