{
  "urn" : "local:alessio.bulckaen:im.countrysupport.senegal:Land_cover_50M_2010",
  "version" : "0.0.2",
  "adapterType" : "raster",
  "localPath" : "im.countrysupport.senegal/resources/Land_cover_50M_2010.v0.0.2",
  "geometry" : "τ1{tend=1293840000000,tstart=1262304000000,ttype=logical}S2(13383,9668){bbox=[227627.98670000117 896777.9867000012 1362153.1824000105 1845553.1824000105],proj=EPSG:32628}",
  "projectName" : "im.countrysupport.senegal",
  "localName" : "Land_cover_50M_2010.tif",
  "type" : "NUMBER",
  "resourceTimestamp" : 1638895750627,
  "metadata" : {
    "im:keywords" : "",
    "dc:comment" : "",
    "im:notes" : "",
    "dc:title" : "",
    "dc:url" : "",
    "dc:creator" : "",
    "im:thematic-area" : "",
    "dc:originator" : "",
    "im:geographic-area" : "",
    "dc:source" : ""
  },
  "parameters" : {
    "transform" : "",
    "nodata" : "-128.0"
  },
  "localPaths" : [ "im.countrysupport.senegal/resources/Land_cover_50M_2010.v0.0.2/Land_cover_50M_2010.tif.ovr", "im.countrysupport.senegal/resources/Land_cover_50M_2010.v0.0.2/Land_cover_50M_2010.tfw", "im.countrysupport.senegal/resources/Land_cover_50M_2010.v0.0.2/Land_cover_50M_2010.tif", "im.countrysupport.senegal/resources/Land_cover_50M_2010.v0.0.2/Land_cover_50M_2010.tif.aux.xml" ],
  "history" : {
    "urn" : "local:alessio.bulckaen:im.countrysupport.senegal:Land_cover_50M_2010",
    "version" : "0.0.2",
    "adapterType" : "raster",
    "localPath" : "im.countrysupport.senegal/resources/Land_cover_50M_2010.v0.0.1",
    "geometry" : "τ1{tend=1293840000000,tstart=1262304000000,ttype=logical}S2(13383,9668){bbox=[227627.98670000117 896777.9867000012 1362153.1824000105 1845553.1824000105],proj=EPSG:32628}",
    "projectName" : "im.countrysupport.senegal",
    "localName" : "Land_cover_50M_2010.tif",
    "type" : "NUMBER",
    "resourceTimestamp" : 1638895509067,
    "metadata" : {
      "im:keywords" : "",
      "dc:comment" : "",
      "im:notes" : "",
      "dc:title" : "",
      "dc:url" : "",
      "dc:creator" : "",
      "im:thematic-area" : "",
      "dc:originator" : "",
      "im:geographic-area" : "",
      "dc:source" : ""
    },
    "parameters" : {
      "transform" : "",
      "nodata" : "-128.0"
    },
    "localPaths" : [ "im.countrysupport.senegal/resources/Land_cover_50M_2010.v0.0.1/Land_cover_50M_2010.tif.ovr", "im.countrysupport.senegal/resources/Land_cover_50M_2010.v0.0.1/Land_cover_50M_2010.tfw", "im.countrysupport.senegal/resources/Land_cover_50M_2010.v0.0.1/Land_cover_50M_2010.tif", "im.countrysupport.senegal/resources/Land_cover_50M_2010.v0.0.1/Land_cover_50M_2010.tif.aux.xml" ],
    "history" : [ ],
    "notifications" : [ ],
    "attributes" : [ ],
    "spatialExtent" : {
      "east" : -11.281255462119864,
      "west" : -17.55379919734718,
      "north" : 16.692116967065196,
      "south" : 12.297592057543183,
      "gridResolution" : null,
      "gridUnit" : null
    },
    "dependencies" : null,
    "outputs" : null,
    "categorizables" : [ ],
    "codelists" : [ ],
    "availability" : null,
    "exportFormats" : {
      "zip" : "GeoTiff"
    }
  },
  "notifications" : [ ],
  "attributes" : [ ],
  "spatialExtent" : {
    "east" : -11.281255462119864,
    "west" : -17.55379919734718,
    "north" : 16.692116967065196,
    "south" : 12.297592057543183,
    "gridResolution" : null,
    "gridUnit" : null
  },
  "dependencies" : null,
  "outputs" : null,
  "categorizables" : [ ],
  "codelists" : [ ],
  "availability" : null,
  "exportFormats" : {
    "zip" : "GeoTiff"
  }
}